{
    "extName": {
        "message": "Remote Cached Pages",
        "description": "Extension name."
    },
    "extDesc": {
        "message": "Quick-access to viewing a page cached on Google's servers. Useful if the server hosting the page is slow or unavailable.",
        "description": "Description of extension."
    },
    "openCachedMenu": {
        "message": "Open Cached Page from Google",
        "description": "Menu item text for opening cached page."
    },
    "openCachedTabMenu": {
        "message": "Open Cached Page from Google in New Tab",
        "description": "Menu item text for opening cached page in new tab."
    }
}
